%YAML 1.1
%TAG !u! tag:unity3d.com,2011:
--- !u!114 &11400000
MonoBehaviour:
  m_ObjectHideFlags: 0
  m_CorrespondingSourceObject: {fileID: 0}
  m_PrefabInstance: {fileID: 0}
  m_PrefabAsset: {fileID: 0}
  m_GameObject: {fileID: 0}
  m_Enabled: 1
  m_EditorHideFlags: 0
  m_Script: {fileID: 11500000, guid: 16e14972702bd9c469afd1467ebca6fe, type: 3}
  m_Name: Celestial (Special)
  m_EditorClassIdentifier: 
  _elementName: Celestial
  _appliedName: Shine
  _elementSprite: {fileID: 21300000, guid: 224b3e901b062874a984730122681bb5, type: 3}
  _elementColour: {r: 0.9921569, g: 0.6862745, b: 0.9803922, a: 1}
  _weakness:
  - {fileID: 11400000, guid: 1424c11d06f1d6f489b8dc99dc91ac34, type: 2}
  _resistances:
  - {fileID: 11400000}
  _blocks:
  - {fileID: 11400000, guid: 07fbba97c91d8614e800dbc4016230f1, type: 2}
  _reactions:
  - {fileID: 11400000, guid: ef71c759f773c1a439c4b83ab3ca7a95, type: 2}
  - {fileID: 11400000, guid: 4fd752bed37c08c4598f55fbb064767d, type: 2}
