%YAML 1.1
%TAG !u! tag:unity3d.com,2011:
--- !u!114 &11400000
MonoBehaviour:
  m_ObjectHideFlags: 0
  m_CorrespondingSourceObject: {fileID: 0}
  m_PrefabInstance: {fileID: 0}
  m_PrefabAsset: {fileID: 0}
  m_GameObject: {fileID: 0}
  m_Enabled: 1
  m_EditorHideFlags: 0
  m_Script: {fileID: 11500000, guid: 16e14972702bd9c469afd1467ebca6fe, type: 3}
  m_Name: Darkness
  m_EditorClassIdentifier: 
  _elementName: Darkness
  _appliedName: Darken
  _elementSprite: {fileID: 21300000, guid: 9d9d03f6217651647b6bef56f35e8f7d, type: 3}
  _elementColour: {r: 0.3529412, g: 0.18039216, b: 0.34509805, a: 1}
  _weakness:
  - {fileID: 11400000, guid: 07fbba97c91d8614e800dbc4016230f1, type: 2}
  _resistances: []
  _blocks: []
  _reactions:
  - {fileID: 11400000, guid: 66efbd27dfcc57943b0c775a4df450ee, type: 2}
  - {fileID: 11400000, guid: 40871a7b1f246274a9520a2d12343c57, type: 2}
  - {fileID: 11400000, guid: ef71c759f773c1a439c4b83ab3ca7a95, type: 2}
