%YAML 1.1
%TAG !u! tag:unity3d.com,2011:
--- !u!114 &11400000
MonoBehaviour:
  m_ObjectHideFlags: 0
  m_CorrespondingSourceObject: {fileID: 0}
  m_PrefabInstance: {fileID: 0}
  m_PrefabAsset: {fileID: 0}
  m_GameObject: {fileID: 0}
  m_Enabled: 1
  m_EditorHideFlags: 0
  m_Script: {fileID: 11500000, guid: 1535c48d0c955c547a7f6e7d4c7664e0, type: 3}
  m_Name: Mage
  m_EditorClassIdentifier: 
  className: Mage
  classDesc: 
  attackBonus: 0
  defenceBonus: 0
  magicAttackBonus: 1
  magicDefenceBonus: 1
  speedBonus: 0
