{
    "name": "EltaninEntertainment.GalactiaChronicles",
    "rootNamespace": "EltaninEntertainment.GalactiaChronicles",
    "references": [
        "EltaninEntertainment.AssetManagement",
        "EltaninEntertainment.Commons",
        "EltaninEntertainment.Characters",
        "EltaninEntertainment.DialogueGraph",
        "EltaninEntertainment.GraphViews",
        "EltaninEntertainment.Inventory",
        "EltaninEntertainment.Localisation",
        "EltaninEntertainment.RPG",
        "EltaninEntertainment.Settings",
        "EltaninEntertainment.UI",
        "Unity.TextMeshPro",
        "UnitySceneReference"
    ],
    "includePlatforms": [],
    "excludePlatforms": [],
    "allowUnsafeCode": false,
    "overrideReferences": false,
    "precompiledReferences": [],
    "autoReferenced": true,
    "defineConstraints": [],
    "versionDefines": [
        {
            "name": "com.unity.addressables",
            "expression": "",
            "define": "USE_ADDRESSABLES"
        }
    ],
    "noEngineReferences": false
}