%YAML 1.1
%TAG !u! tag:unity3d.com,2011:
--- !u!114 &11400000
MonoBehaviour:
  m_ObjectHideFlags: 0
  m_CorrespondingSourceObject: {fileID: 0}
  m_PrefabInstance: {fileID: 0}
  m_PrefabAsset: {fileID: 0}
  m_GameObject: {fileID: 0}
  m_Enabled: 1
  m_EditorHideFlags: 0
  m_Script: {fileID: 11500000, guid: 8135b951ba8818b489ead489b35af620, type: 3}
  m_Name: SamplePartyData
  m_EditorClassIdentifier: 
  _party:
  - {fileID: 11400000, guid: c56cd5f41c30d784fb8ed294d0fd6bd1, type: 2}
  - {fileID: 11400000, guid: 81b8fe04434aa454e8f3a5ff6b004a9a, type: 2}
  - {fileID: 11400000, guid: 7c081301fd3e46043a5359e9f5e27faf, type: 2}
  - {fileID: 11400000, guid: 0f4eb56feb8785d4798b14a80857a7d8, type: 2}
