%YAML 1.1
%TAG !u! tag:unity3d.com,2011:
--- !u!114 &11400000
MonoBehaviour:
  m_ObjectHideFlags: 0
  m_CorrespondingSourceObject: {fileID: 0}
  m_PrefabInstance: {fileID: 0}
  m_PrefabAsset: {fileID: 0}
  m_GameObject: {fileID: 0}
  m_Enabled: 1
  m_EditorHideFlags: 0
  m_Script: {fileID: 11500000, guid: 563010b918c525a469dc2040b707a3c5, type: 3}
  m_Name: 2D
  m_EditorClassIdentifier: 
  _battleback: {fileID: 21300000, guid: 789d49d0ddc5f1e4fbbaf3c567444ddf, type: 3}
  _possibleEnemies:
  - {fileID: 11400000, guid: d7ed95b56d30d314da6ae4156d5ae02f, type: 2}
  - {fileID: 11400000, guid: ea3eaca527b4fd64da3b3d6070a9ef64, type: 2}
  _minEnemies: 1
  _maxEnemies: 2
  _continueIfLost: 0
  _events: []
  _sounds:
    _musicIntro: {fileID: 0}
    _music: {fileID: 8300000, guid: b05d891009fa5c34c8a333b2a69525de, type: 3}
    _musicEffect: {fileID: 0}
    _soundEffects: []
