%YAML 1.1
%TAG !u! tag:unity3d.com,2011:
--- !u!114 &11400000
MonoBehaviour:
  m_ObjectHideFlags: 0
  m_CorrespondingSourceObject: {fileID: 0}
  m_PrefabInstance: {fileID: 0}
  m_PrefabAsset: {fileID: 0}
  m_GameObject: {fileID: 0}
  m_Enabled: 1
  m_EditorHideFlags: 0
  m_Script: {fileID: 11500000, guid: 13b75c95f34a00d4e8c04f76b73312e6, type: 3}
  m_Name: Sea Rock
  m_EditorClassIdentifier: 
  m_AnimatedSprites:
  - {fileID: 4869111983135683201, guid: a26c3acf077299741962458a65b6da55, type: 3}
  - {fileID: 6099508297036297140, guid: a26c3acf077299741962458a65b6da55, type: 3}
  - {fileID: -4388081867620659424, guid: a26c3acf077299741962458a65b6da55, type: 3}
  - {fileID: 6099508297036297140, guid: a26c3acf077299741962458a65b6da55, type: 3}
  m_MinSpeed: 2
  m_MaxSpeed: 2
  m_AnimationStartTime: 0
  m_TileColliderType: 2
