%YAML 1.1
%TAG !u! tag:unity3d.com,2011:
--- !u!114 &11400000
MonoBehaviour:
  m_ObjectHideFlags: 0
  m_CorrespondingSourceObject: {fileID: 0}
  m_PrefabInstance: {fileID: 0}
  m_PrefabAsset: {fileID: 0}
  m_GameObject: {fileID: 0}
  m_Enabled: 1
  m_EditorHideFlags: 0
  m_Script: {fileID: 11500000, guid: a5f6da45da16d6a4f97091a83e8c3cf8, type: 3}
  m_Name: Ustonian
  m_EditorClassIdentifier: 
  raceName: Ustonian
  raceDesc: Their home of Ustonia is the main hub for the Galactian Alliance. They
    are known for being well suited to both physical and magical combat.
  healthBonus: 3
  staminaBonus: 2
  attackBonus: 1
  defenceBonus: 1
  magicAttackBonus: 1
  magicDefenceBonus: 1
  speedBonus: 1
