%YAML 1.1
%TAG !u! tag:unity3d.com,2011:
--- !u!114 &11400000
MonoBehaviour:
  m_ObjectHideFlags: 0
  m_CorrespondingSourceObject: {fileID: 0}
  m_PrefabInstance: {fileID: 0}
  m_PrefabAsset: {fileID: 0}
  m_GameObject: {fileID: 0}
  m_Enabled: 1
  m_EditorHideFlags: 0
  m_Script: {fileID: 11500000, guid: bbb281ee3bf0b054c82ac2347e9e782c, type: 3}
  m_Name: EnemyPrefabs
  m_EditorClassIdentifier: 
  m_GroupName: EnemyPrefabs
  m_Data:
    m_SerializedData: []
  m_GUID: faad8e5268a0a92498318a2387a3cbb2
  m_SerializeEntries: []
  m_ReadOnly: 0
  m_Settings: {fileID: 11400000, guid: a8386581674ef454c87859895eab5ba4, type: 2}
  m_SchemaSet:
    m_Schemas:
    - {fileID: 11400000, guid: d3e52e98990ac314090f040c48bb3686, type: 2}
    - {fileID: 11400000, guid: 630f8b56930aa9b4193a25ec08a14f72, type: 2}
