%YAML 1.1
%TAG !u! tag:unity3d.com,2011:
--- !u!114 &11400000
MonoBehaviour:
  m_ObjectHideFlags: 0
  m_CorrespondingSourceObject: {fileID: 0}
  m_PrefabInstance: {fileID: 0}
  m_PrefabAsset: {fileID: 0}
  m_GameObject: {fileID: 0}
  m_Enabled: 1
  m_EditorHideFlags: 0
  m_Script: {fileID: 11500000, guid: bbb281ee3bf0b054c82ac2347e9e782c, type: 3}
  m_Name: EnemyData
  m_EditorClassIdentifier: 
  m_GroupName: EnemyData
  m_Data:
    m_SerializedData: []
  m_GUID: c87006cfb3f0a0a4ca9d5354faecf056
  m_SerializeEntries: []
  m_ReadOnly: 0
  m_Settings: {fileID: 11400000, guid: a8386581674ef454c87859895eab5ba4, type: 2}
  m_SchemaSet:
    m_Schemas:
    - {fileID: 11400000, guid: 5d2eb3bce4d4f844a840aab30e8addc2, type: 2}
    - {fileID: 11400000, guid: 4097fe0b59ae6d44fbc6656c121b70c0, type: 2}
