%YAML 1.1
%TAG !u! tag:unity3d.com,2011:
--- !u!114 &11400000
MonoBehaviour:
  m_ObjectHideFlags: 0
  m_CorrespondingSourceObject: {fileID: 0}
  m_PrefabInstance: {fileID: 0}
  m_PrefabAsset: {fileID: 0}
  m_GameObject: {fileID: 0}
  m_Enabled: 1
  m_EditorHideFlags: 0
  m_Script: {fileID: 11500000, guid: bbb281ee3bf0b054c82ac2347e9e782c, type: 3}
  m_Name: PlayerSprites
  m_EditorClassIdentifier: 
  m_GroupName: PlayerSprites
  m_Data:
    m_SerializedData: []
  m_GUID: 7c13fe65963d05c4e9caac2c3c0704ab
  m_SerializeEntries:
  - m_GUID: 82e126eaaa354f549b404115a8f4890b
    m_Address: CHA_Jen
    m_ReadOnly: 0
    m_SerializedLabels:
    - PlayerAssets
  - m_GUID: 1eb3f39b7a6f901428ca1c50de780835
    m_Address: CHA_Joutai
    m_ReadOnly: 0
    m_SerializedLabels:
    - PlayerAssets
  - m_GUID: 331f96e86c40fe148bae317c4dea4033
    m_Address: CHA_Player
    m_ReadOnly: 0
    m_SerializedLabels:
    - PlayerAssets
  - m_GUID: fb83a10789c79424daf0672d5c948af1
    m_Address: CHA_Selsia
    m_ReadOnly: 0
    m_SerializedLabels:
    - PlayerAssets
  - m_GUID: 7eeb90ec695004e449bbd2764fc535a1
    m_Address: CHA_Vizaar
    m_ReadOnly: 0
    m_SerializedLabels:
    - PlayerAssets
  - m_GUID: c1815b5ec62c75141958ad7c99da6828
    m_Address: CHA_Vizaar_Awakened
    m_ReadOnly: 0
    m_SerializedLabels:
    - PlayerAssets
  - m_GUID: 4f55d3472714ebe49b97ca2c840417cb
    m_Address: BAT_Jen
    m_ReadOnly: 0
    m_SerializedLabels:
    - PlayerAssets
  - m_GUID: 22470ba48c573db4298a6a2af32ab2f6
    m_Address: BAT_Joutai
    m_ReadOnly: 0
    m_SerializedLabels:
    - PlayerAssets
  - m_GUID: a565e145722fb2c4ea5958297f89588b
    m_Address: BAT_Selsia
    m_ReadOnly: 0
    m_SerializedLabels:
    - PlayerAssets
  - m_GUID: 0c728a816aeccc745b76097f1a4763eb
    m_Address: BAT_Vizaar_Awakened
    m_ReadOnly: 0
    m_SerializedLabels:
    - PlayerAssets
  - m_GUID: 5ce017e92a36d7640ac48e281b5c458d
    m_Address: BAT_Vizaar
    m_ReadOnly: 0
    m_SerializedLabels:
    - PlayerAssets
  - m_GUID: adec5d1270c5e604ab1e0e48a038733d
    m_Address: FAC_Jen
    m_ReadOnly: 0
    m_SerializedLabels:
    - PlayerAssets
  - m_GUID: 45fbe935ae4ef8a4bbf4159886a95379
    m_Address: FAC_Joutai
    m_ReadOnly: 0
    m_SerializedLabels:
    - PlayerAssets
  - m_GUID: e84b1ea6c7579e94381931f7cd486fee
    m_Address: FAC_Selsia
    m_ReadOnly: 0
    m_SerializedLabels:
    - PlayerAssets
  - m_GUID: a2e2186925bdefa4ea0630824f481346
    m_Address: FAC_Vizaar
    m_ReadOnly: 0
    m_SerializedLabels:
    - PlayerAssets
  - m_GUID: c9bc24457e1b1ee44bd12d6e0dcc2868
    m_Address: FAC_Vizaar_Awakened
    m_ReadOnly: 0
    m_SerializedLabels:
    - PlayerAssets
  m_ReadOnly: 0
  m_Settings: {fileID: 11400000, guid: a8386581674ef454c87859895eab5ba4, type: 2}
  m_SchemaSet:
    m_Schemas:
    - {fileID: 11400000, guid: 1f4b171a90a2a62458e1ffb4b0f71e29, type: 2}
    - {fileID: 11400000, guid: 5143dfbd2cc389c4f934e561731d1f8e, type: 2}
