%YAML 1.1
%TAG !u! tag:unity3d.com,2011:
--- !u!114 &11400000
MonoBehaviour:
  m_ObjectHideFlags: 0
  m_CorrespondingSourceObject: {fileID: 0}
  m_PrefabInstance: {fileID: 0}
  m_PrefabAsset: {fileID: 0}
  m_GameObject: {fileID: 0}
  m_Enabled: 1
  m_EditorHideFlags: 0
  m_Script: {fileID: 11500000, guid: bbb281ee3bf0b054c82ac2347e9e782c, type: 3}
  m_Name: ReactionData
  m_EditorClassIdentifier: 
  m_GroupName: ReactionData
  m_Data:
    m_SerializedData: []
  m_GUID: 417212798de5cff44abd8c5d3fa562b9
  m_SerializeEntries:
  - m_GUID: db6f15ae10bdd364b91a4419a6e858e8
    m_Address: Agitate
    m_ReadOnly: 0
    m_SerializedLabels:
    - ElementData
  - m_GUID: 927afc82c14f21d4cba3aaa5b90af3e5
    m_Address: Drench
    m_ReadOnly: 0
    m_SerializedLabels:
    - ElementData
  - m_GUID: 66efbd27dfcc57943b0c775a4df450ee
    m_Address: Eclipse
    m_ReadOnly: 0
    m_SerializedLabels:
    - ElementData
  - m_GUID: 4e64659a43c4b0347afda911c362690d
    m_Address: Flood
    m_ReadOnly: 0
    m_SerializedLabels:
    - ElementData
  - m_GUID: 40871a7b1f246274a9520a2d12343c57
    m_Address: Gloom
    m_ReadOnly: 0
    m_SerializedLabels:
    - ElementData
  - m_GUID: 4fd752bed37c08c4598f55fbb064767d
    m_Address: Nebula
    m_ReadOnly: 0
    m_SerializedLabels:
    - ElementData
  - m_GUID: ef71c759f773c1a439c4b83ab3ca7a95
    m_Address: Pulsar
    m_ReadOnly: 0
    m_SerializedLabels:
    - ElementData
  - m_GUID: d911670f1428487498068bab9337c866
    m_Address: Smoulder
    m_ReadOnly: 0
    m_SerializedLabels:
    - ElementData
  - m_GUID: 1c3b640876caca840824eca49916bb71
    m_Address: Splinter
    m_ReadOnly: 0
    m_SerializedLabels:
    - ElementData
  m_ReadOnly: 0
  m_Settings: {fileID: 11400000, guid: a8386581674ef454c87859895eab5ba4, type: 2}
  m_SchemaSet:
    m_Schemas:
    - {fileID: 11400000, guid: d6490160670ed7d42abdd7a64049186a, type: 2}
    - {fileID: 11400000, guid: c820aecc8732a9e43af5e1067fe4d790, type: 2}
