%YAML 1.1
%TAG !u! tag:unity3d.com,2011:
--- !u!114 &11400000
MonoBehaviour:
  m_ObjectHideFlags: 0
  m_CorrespondingSourceObject: {fileID: 0}
  m_PrefabInstance: {fileID: 0}
  m_PrefabAsset: {fileID: 0}
  m_GameObject: {fileID: 0}
  m_Enabled: 1
  m_EditorHideFlags: 0
  m_Script: {fileID: 11500000, guid: 7f084b96f79732544a64e865d31a5002, type: 3}
  m_Name: FAC_Joutai
  m_EditorClassIdentifier: 
  sprite: {fileID: 2800000, guid: 45fbe935ae4ef8a4bbf4159886a95379, type: 3}
  sprites:
  - {fileID: 21300000, guid: 45fbe935ae4ef8a4bbf4159886a95379, type: 3}
  _texture: {fileID: 2800000, guid: 45fbe935ae4ef8a4bbf4159886a95379, type: 3}
  _sprites:
  - {fileID: 21300000, guid: 45fbe935ae4ef8a4bbf4159886a95379, type: 3}
