%YAML 1.1
%TAG !u! tag:unity3d.com,2011:
--- !u!114 &11400000
MonoBehaviour:
  m_ObjectHideFlags: 0
  m_CorrespondingSourceObject: {fileID: 0}
  m_PrefabInstance: {fileID: 0}
  m_PrefabAsset: {fileID: 0}
  m_GameObject: {fileID: 0}
  m_Enabled: 1
  m_EditorHideFlags: 0
  m_Script: {fileID: 11500000, guid: b4dde4ebce9da2941bba576fe5ffa099, type: 3}
  m_Name: VizaarCelestialArt
  m_EditorClassIdentifier: 
  _fileName: VizaarCelestialArt
  _groups:
    list: []
  _nodes:
  - {fileID: 11400000, guid: 216b2a2fd22a24a4d9c6192c1d83bc5c, type: 2}
  - {fileID: 11400000, guid: 1d1180aa6ec887f4cbc146b902965d2d, type: 2}
  - {fileID: 11400000, guid: be0db6017db9f8f4ca174e062f34d743, type: 2}
  - {fileID: 11400000, guid: 9dd544360fdc534489dae51aecdc159c, type: 2}
  - {fileID: 11400000, guid: 7c1270c1313f2104f9124f6d527d702c, type: 2}
  - {fileID: 11400000, guid: 44b7d15e71387de468ab5449dbbd845b, type: 2}
