%YAML 1.1
%TAG !u! tag:unity3d.com,2011:
--- !u!114 &11400000
MonoBehaviour:
  m_ObjectHideFlags: 0
  m_CorrespondingSourceObject: {fileID: 0}
  m_PrefabInstance: {fileID: 0}
  m_PrefabAsset: {fileID: 0}
  m_GameObject: {fileID: 0}
  m_Enabled: 1
  m_EditorHideFlags: 0
  m_Script: {fileID: 11500000, guid: 5ac38e6d867aea242bb3278c0143a96a, type: 3}
  m_Name: 1
  m_EditorClassIdentifier: 
  _nodeName: 1
  _speaker: Vizaar
  _text: Heh, now THAT is interesting!
  _face: {fileID: 21300000, guid: a2e2186925bdefa4ea0630824f481346, type: 3}
  _alignment: 0
  _choices:
  - _text: Next Dialogue
    _nextNode: {fileID: 11400000, guid: 9dd544360fdc534489dae51aecdc159c, type: 2}
  _type: 0
  _isRootNode: 1
