%YAML 1.1
%TAG !u! tag:unity3d.com,2011:
--- !u!114 &11400000
MonoBehaviour:
  m_ObjectHideFlags: 0
  m_CorrespondingSourceObject: {fileID: 0}
  m_PrefabInstance: {fileID: 0}
  m_PrefabAsset: {fileID: 0}
  m_GameObject: {fileID: 0}
  m_Enabled: 1
  m_EditorHideFlags: 0
  m_Script: {fileID: 11500000, guid: 7f084b96f79732544a64e865d31a5002, type: 3}
  m_Name: CHA_Placeholder
  m_EditorClassIdentifier: 
  sprite: {fileID: 2800000, guid: 331f96e86c40fe148bae317c4dea4033, type: 3}
  sprites:
  - {fileID: 21300000, guid: 331f96e86c40fe148bae317c4dea4033, type: 3}
  - {fileID: 21300002, guid: 331f96e86c40fe148bae317c4dea4033, type: 3}
  - {fileID: 21300004, guid: 331f96e86c40fe148bae317c4dea4033, type: 3}
  - {fileID: 21300006, guid: 331f96e86c40fe148bae317c4dea4033, type: 3}
  - {fileID: 21300008, guid: 331f96e86c40fe148bae317c4dea4033, type: 3}
  - {fileID: 21300010, guid: 331f96e86c40fe148bae317c4dea4033, type: 3}
  - {fileID: 21300012, guid: 331f96e86c40fe148bae317c4dea4033, type: 3}
  - {fileID: 21300014, guid: 331f96e86c40fe148bae317c4dea4033, type: 3}
  - {fileID: 21300016, guid: 331f96e86c40fe148bae317c4dea4033, type: 3}
  - {fileID: 21300018, guid: 331f96e86c40fe148bae317c4dea4033, type: 3}
  - {fileID: 21300020, guid: 331f96e86c40fe148bae317c4dea4033, type: 3}
  - {fileID: 21300022, guid: 331f96e86c40fe148bae317c4dea4033, type: 3}
  _texture: {fileID: 2800000, guid: 331f96e86c40fe148bae317c4dea4033, type: 3}
  _sprites:
  - {fileID: 21300000, guid: 331f96e86c40fe148bae317c4dea4033, type: 3}
  - {fileID: 21300002, guid: 331f96e86c40fe148bae317c4dea4033, type: 3}
  - {fileID: 21300004, guid: 331f96e86c40fe148bae317c4dea4033, type: 3}
  - {fileID: 21300006, guid: 331f96e86c40fe148bae317c4dea4033, type: 3}
  - {fileID: 21300008, guid: 331f96e86c40fe148bae317c4dea4033, type: 3}
  - {fileID: 21300010, guid: 331f96e86c40fe148bae317c4dea4033, type: 3}
  - {fileID: 21300012, guid: 331f96e86c40fe148bae317c4dea4033, type: 3}
  - {fileID: 21300014, guid: 331f96e86c40fe148bae317c4dea4033, type: 3}
  - {fileID: 21300016, guid: 331f96e86c40fe148bae317c4dea4033, type: 3}
  - {fileID: 21300018, guid: 331f96e86c40fe148bae317c4dea4033, type: 3}
  - {fileID: 21300020, guid: 331f96e86c40fe148bae317c4dea4033, type: 3}
  - {fileID: 21300022, guid: 331f96e86c40fe148bae317c4dea4033, type: 3}
