%YAML 1.1
%TAG !u! tag:unity3d.com,2011:
--- !u!114 &11400000
MonoBehaviour:
  m_ObjectHideFlags: 0
  m_CorrespondingSourceObject: {fileID: 0}
  m_PrefabInstance: {fileID: 0}
  m_PrefabAsset: {fileID: 0}
  m_GameObject: {fileID: 0}
  m_Enabled: 1
  m_EditorHideFlags: 0
  m_Script: {fileID: 11500000, guid: d5b8021ce3717ca448d04345be24b4cf, type: 3}
  m_Name: LowerSpeed25
  m_EditorClassIdentifier: 
  _effectName: Lower Speed
  _type: 12
  _chance: 25
  _strength: 1
