%YAML 1.1
%TAG !u! tag:unity3d.com,2011:
--- !u!114 &11400000
MonoBehaviour:
  m_ObjectHideFlags: 0
  m_CorrespondingSourceObject: {fileID: 0}
  m_PrefabInstance: {fileID: 0}
  m_PrefabAsset: {fileID: 0}
  m_GameObject: {fileID: 0}
  m_Enabled: 1
  m_EditorHideFlags: 0
  m_Script: {fileID: 11500000, guid: b4dde4ebce9da2941bba576fe5ffa099, type: 3}
  m_Name: VizaarBattleT3
  m_EditorClassIdentifier: 
  _fileName: VizaarBattleT3
  _groups:
    list: []
  _nodes:
  - {fileID: 11400000, guid: 8ddf7b0bcf6b039458d4eb9e5de9fcef, type: 2}
  - {fileID: 11400000, guid: c79e0a779b1ad9f44bdb776147d043c2, type: 2}
