%YAML 1.1
%TAG !u! tag:unity3d.com,2011:
--- !u!114 &11400000
MonoBehaviour:
  m_ObjectHideFlags: 0
  m_CorrespondingSourceObject: {fileID: 0}
  m_PrefabInstance: {fileID: 0}
  m_PrefabAsset: {fileID: 0}
  m_GameObject: {fileID: 0}
  m_Enabled: 1
  m_EditorHideFlags: 0
  m_Script: {fileID: 11500000, guid: 8ef4efa53a9e9c24ca369c88235f1314, type: 3}
  m_Name: Drench
  m_EditorClassIdentifier: 
  _reactionName: Drench
  _reactants:
  - {fileID: 11400000, guid: d8b613c8644ed6648903333c22a766bc, type: 2}
  _catalyst: {fileID: 11400000, guid: baf332dcd7c34bf4e8d9533a604f3672, type: 2}
  _damageMultiplier: 1
  _mode: 0
  _effect: 1
