{
  "keys": [
    {
      "id": "team_name",
      "value": ""
    }
  ],
  "values": [],
  "integers": [
    {
      "id": "gold",
      "value": 30000
    }
  ],
  "switches": [
    {
      "id": "agreed_to_euler",
      "value": false
    },
    {
      "id": "passed_intro",
      "value": false
    },
    {
      "id": "boss_1",
      "value": false
    },
    {
      "id": "boss_2",
      "value": false
    },
    {
      "id": "boss_3",
      "value": false
    },
    {
      "id": "boss_4",
      "value": false
    },
    {
      "id": "boss_5",
      "value": false
    },
    {
      "id": "boss_6",
      "value": false
    },
    {
      "id": "boss_7",
      "value": false
    },
    {
      "id": "boss_8",
      "value": false
    },
    {
      "id": "boss_9",
      "value": false
    },
    {
      "id": "boss_10",
      "value": false
    },
    {
      "id": "boss_11",
      "value": false
    },
    {
      "id": "boss_12",
      "value": false
    },
    {
      "id": "boss_13",
      "value": false
    },
    {
      "id": "boss_14",
      "value": false
    },
    {
      "id": "boss_15",
      "value": false
    },
    {
      "id": "boss_16",
      "value": false
    },
    {
      "id": "chapter_1",
      "value": false
    },
    {
      "id": "chapter_2",
      "value": false
    },
    {
      "id": "chapter_3",
      "value": false
    },
    {
      "id": "chapter_4",
      "value": false
    },
    {
      "id": "chapter_5",
      "value": false
    },
    {
      "id": "chapter_6",
      "value": false
    },
    {
      "id": "chapter_7",
      "value": false
    },
    {
      "id": "chapter_8",
      "value": false
    },
    {
      "id": "chapter_9",
      "value": false
    },
    {
      "id": "chapter_10",
      "value": false
    },
    {
      "id": "chapter_11",
      "value": false
    },
    {
      "id": "chapter_12",
      "value": false
    },
    {
      "id": "chapter_13",
      "value": false
    },
    {
      "id": "chapter_14",
      "value": false
    },
    {
      "id": "chapter_15",
      "value": false
    },
    {
      "id": "chapter_16",
      "value": false
    }
  ]
}