%YAML 1.1
%TAG !u! tag:unity3d.com,2011:
--- !u!114 &11400000
MonoBehaviour:
  m_ObjectHideFlags: 0
  m_CorrespondingSourceObject: {fileID: 0}
  m_PrefabInstance: {fileID: 0}
  m_PrefabAsset: {fileID: 0}
  m_GameObject: {fileID: 0}
  m_Enabled: 1
  m_EditorHideFlags: 0
  m_Script: {fileID: 11500000, guid: 9d1514134bc4fbd41bb739b1b9a49231, type: 3}
  m_Name: Cliff V Single - Sand
  m_EditorClassIdentifier: 
  m_DefaultSprite: {fileID: -7525040934416791607, guid: c78d7e367d549e8478ca75b5b2bee6db, type: 3}
  m_DefaultGameObject: {fileID: 0}
  m_DefaultColliderType: 1
  m_TilingRules:
  - m_Neighbors: 0000000002000000000000000200000001000000000000000100000000000000
    m_Sprites:
    - {fileID: -3292805617874563086, guid: c78d7e367d549e8478ca75b5b2bee6db, type: 3}
    m_GameObject: {fileID: 0}
    m_AnimationSpeed: 1
    m_PerlinScale: 0.5
    m_RuleTransform: 0
    m_Output: 0
    m_ColliderType: 1
    m_RandomTransform: 0
  - m_Neighbors: 0000000002000000000000000100000001000000000000000100000000000000
    m_Sprites:
    - {fileID: -8144376409772258059, guid: c78d7e367d549e8478ca75b5b2bee6db, type: 3}
    m_GameObject: {fileID: 0}
    m_AnimationSpeed: 1
    m_PerlinScale: 0.5
    m_RuleTransform: 0
    m_Output: 0
    m_ColliderType: 1
    m_RandomTransform: 0
  - m_Neighbors: 0000000002000000000000000100000002000000000000000100000000000000
    m_Sprites:
    - {fileID: 5097018618953628158, guid: c78d7e367d549e8478ca75b5b2bee6db, type: 3}
    m_GameObject: {fileID: 0}
    m_AnimationSpeed: 1
    m_PerlinScale: 0.5
    m_RuleTransform: 0
    m_Output: 0
    m_ColliderType: 1
    m_RandomTransform: 0
  - m_Neighbors: 0000000001000000000000000200000001000000000000000100000000000000
    m_Sprites:
    - {fileID: 7961265952281168007, guid: c78d7e367d549e8478ca75b5b2bee6db, type: 3}
    m_GameObject: {fileID: 0}
    m_AnimationSpeed: 1
    m_PerlinScale: 0.5
    m_RuleTransform: 0
    m_Output: 0
    m_ColliderType: 1
    m_RandomTransform: 0
  - m_Neighbors: 0000000001000000000000000100000002000000000000000100000000000000
    m_Sprites:
    - {fileID: -273062468985302006, guid: c78d7e367d549e8478ca75b5b2bee6db, type: 3}
    m_GameObject: {fileID: 0}
    m_AnimationSpeed: 1
    m_PerlinScale: 0.5
    m_RuleTransform: 0
    m_Output: 0
    m_ColliderType: 1
    m_RandomTransform: 0
  - m_Neighbors: 0000000001000000000000000200000001000000000000000200000000000000
    m_Sprites:
    - {fileID: 5923186966625884143, guid: c78d7e367d549e8478ca75b5b2bee6db, type: 3}
    m_GameObject: {fileID: 0}
    m_AnimationSpeed: 1
    m_PerlinScale: 0.5
    m_RuleTransform: 0
    m_Output: 0
    m_ColliderType: 1
    m_RandomTransform: 0
  - m_Neighbors: 0000000001000000000000000100000001000000000000000200000000000000
    m_Sprites:
    - {fileID: -2253935288443505845, guid: c78d7e367d549e8478ca75b5b2bee6db, type: 3}
    m_GameObject: {fileID: 0}
    m_AnimationSpeed: 1
    m_PerlinScale: 0.5
    m_RuleTransform: 0
    m_Output: 0
    m_ColliderType: 1
    m_RandomTransform: 0
  - m_Neighbors: 0000000001000000000000000100000002000000000000000200000000000000
    m_Sprites:
    - {fileID: -1438744754000715686, guid: c78d7e367d549e8478ca75b5b2bee6db, type: 3}
    m_GameObject: {fileID: 0}
    m_AnimationSpeed: 1
    m_PerlinScale: 0.5
    m_RuleTransform: 0
    m_Output: 0
    m_ColliderType: 1
    m_RandomTransform: 0
  - m_Neighbors: 0000000000000000000000000000000001000000000000000100000002000000
    m_Sprites:
    - {fileID: 6151722457674541493, guid: c78d7e367d549e8478ca75b5b2bee6db, type: 3}
    m_GameObject: {fileID: 0}
    m_AnimationSpeed: 1
    m_PerlinScale: 0.5
    m_RuleTransform: 0
    m_Output: 0
    m_ColliderType: 1
    m_RandomTransform: 0
  - m_Neighbors: 0000000000000000000000000100000000000000020000000100000000000000
    m_Sprites:
    - {fileID: -814302774733996958, guid: c78d7e367d549e8478ca75b5b2bee6db, type: 3}
    m_GameObject: {fileID: 0}
    m_AnimationSpeed: 1
    m_PerlinScale: 0.5
    m_RuleTransform: 0
    m_Output: 0
    m_ColliderType: 1
    m_RandomTransform: 0
  - m_Neighbors: 0000000001000000020000000000000001000000000000000000000000000000
    m_Sprites:
    - {fileID: 920737394562767225, guid: c78d7e367d549e8478ca75b5b2bee6db, type: 3}
    m_GameObject: {fileID: 0}
    m_AnimationSpeed: 1
    m_PerlinScale: 0.5
    m_RuleTransform: 0
    m_Output: 0
    m_ColliderType: 1
    m_RandomTransform: 0
  - m_Neighbors: 0200000001000000000000000100000000000000000000000000000000000000
    m_Sprites:
    - {fileID: -5549823995216547483, guid: c78d7e367d549e8478ca75b5b2bee6db, type: 3}
    m_GameObject: {fileID: 0}
    m_AnimationSpeed: 1
    m_PerlinScale: 0.5
    m_RuleTransform: 0
    m_Output: 0
    m_ColliderType: 1
    m_RandomTransform: 0
