%YAML 1.1
%TAG !u! tag:unity3d.com,2011:
--- !u!114 &11400000
MonoBehaviour:
  m_ObjectHideFlags: 0
  m_CorrespondingSourceObject: {fileID: 0}
  m_PrefabInstance: {fileID: 0}
  m_PrefabAsset: {fileID: 0}
  m_GameObject: {fileID: 0}
  m_Enabled: 1
  m_EditorHideFlags: 0
  m_Script: {fileID: 11500000, guid: c8a63e443ff1a36488e474bb0c41243f, type: 3}
  m_Name: LaserBeam
  m_EditorClassIdentifier: 
  _skillName: Laser Beam
  skillName: Laser Beam
  _skillDescription: The user fires a focused laser at the target
  skillDesc: The user fires a focused laser at the target
  _animation: {fileID: 4743465743249823281, guid: 40f85520a9e2efd4f93246ad45bf035a, type: 3}
  animation: {fileID: 4743465743249823281, guid: 40f85520a9e2efd4f93246ad45bf035a, type: 3}
  _power: 35
  power: 35
  _cost: 1
  cost: 1
  _accuracy: 100
  accuracy: 100
  _secondaryEffectChance: 0
  _skillType: 1
  skillType: 1
  _damageType: 0
  damageType: 0
  _targetType: 0
  targetType: 0
  _secondaryEffect: 0
  secondaryEffect: 0
  _element: {fileID: 11400000, guid: 9e62f6ee83835b04a8e1737bdacc9b30, type: 2}
  element: {fileID: 11400000, guid: 9e62f6ee83835b04a8e1737bdacc9b30, type: 2}
