%YAML 1.1
%TAG !u! tag:unity3d.com,2011:
--- !u!114 &11400000
MonoBehaviour:
  m_ObjectHideFlags: 0
  m_CorrespondingSourceObject: {fileID: 0}
  m_PrefabInstance: {fileID: 0}
  m_PrefabAsset: {fileID: 0}
  m_GameObject: {fileID: 0}
  m_Enabled: 1
  m_EditorHideFlags: 0
  m_Script: {fileID: 11500000, guid: c8a63e443ff1a36488e474bb0c41243f, type: 3}
  m_Name: Wind
  m_EditorClassIdentifier: 
  _skillName: Wind
  _skillDescription: 
  _element: {fileID: 11400000, guid: baf332dcd7c34bf4e8d9533a604f3672, type: 2}
  _animation: {fileID: 0}
  _power: 10
  _cost: 3
  _accuracy: 100
  _skillType: 1
  _damageType: 0
  _targetType: 0
  _effect: {fileID: 11400000, guid: b72a9238a53296c4d8b72b51a8c7fb8e, type: 2}
