%YAML 1.1
%TAG !u! tag:unity3d.com,2011:
--- !u!114 &11400000
MonoBehaviour:
  m_ObjectHideFlags: 0
  m_CorrespondingSourceObject: {fileID: 0}
  m_PrefabInstance: {fileID: 0}
  m_PrefabAsset: {fileID: 0}
  m_GameObject: {fileID: 0}
  m_Enabled: 1
  m_EditorHideFlags: 0
  m_Script: {fileID: 11500000, guid: 5ac38e6d867aea242bb3278c0143a96a, type: 3}
  m_Name: 2
  m_EditorClassIdentifier: 
  _nodeName: 2
  _speaker: Selsia
  _text: Never judge a book by its cover, we just have to keep persisting!
  _face: {fileID: 21300000, guid: e84b1ea6c7579e94381931f7cd486fee, type: 3}
  _alignment: 1
  _choices:
  - _text: Next Dialogue
    _nextNode: {fileID: 0}
  _type: 0
  _isRootNode: 0
