%YAML 1.1
%TAG !u! tag:unity3d.com,2011:
--- !u!114 &11400000
MonoBehaviour:
  m_ObjectHideFlags: 0
  m_CorrespondingSourceObject: {fileID: 0}
  m_PrefabInstance: {fileID: 0}
  m_PrefabAsset: {fileID: 0}
  m_GameObject: {fileID: 0}
  m_Enabled: 1
  m_EditorHideFlags: 0
  m_Script: {fileID: 11500000, guid: 563010b918c525a469dc2040b707a3c5, type: 3}
  m_Name: AromatheaMidBoss
  m_EditorClassIdentifier: 
  _battleback: {fileID: 21300000, guid: 42de15979102e9a4984ec612f2ac34ce, type: 3}
  _possibleEnemies:
  - {fileID: 11400000, guid: 62ab8fed2089edb42af826b8aa1b239a, type: 2}
  _minEnemies: 1
  _maxEnemies: 1
  _continueIfLost: 1
  _events:
  - size: 5
    _dialogueTree: {fileID: 11400000, guid: f4894eff11d22f44e82c0a8c41c1ff80, type: 2}
    _condition: 1
    _comparator: 0
    _comparerValue: 0
    _comparerCharacter: {fileID: 0}
    _comparerElement: {fileID: 0}
    _comparerSkill: {fileID: 0}
    _completeAction: 1
    _completeActionSkill: {fileID: 0}
  - size: 6
    _dialogueTree: {fileID: 11400000, guid: b02c16d561ff62049a996fe6e4c977a0, type: 2}
    _condition: 2
    _comparator: 1
    _comparerValue: 3
    _comparerCharacter: {fileID: 0}
    _comparerElement: {fileID: 0}
    _comparerSkill: {fileID: 0}
    _completeAction: 0
    _completeActionSkill: {fileID: 0}
  - size: 8
    _dialogueTree: {fileID: 11400000, guid: 2ba8caf76fe73ca41b236d8145a7985b, type: 2}
    _condition: 4
    _comparator: 8
    _comparerValue: 0
    _comparerCharacter: {fileID: 11400000, guid: 81b8fe04434aa454e8f3a5ff6b004a9a, type: 2}
    _comparerElement: {fileID: 11400000, guid: 07fbba97c91d8614e800dbc4016230f1, type: 2}
    _comparerSkill: {fileID: 0}
    _completeAction: 1
    _completeActionSkill: {fileID: 11400000, guid: d0c5e7223c840d046bd5d14953558bbf, type: 2}
