%YAML 1.1
%TAG !u! tag:unity3d.com,2011:
--- !u!114 &11400000
MonoBehaviour:
  m_ObjectHideFlags: 0
  m_CorrespondingSourceObject: {fileID: 0}
  m_PrefabInstance: {fileID: 0}
  m_PrefabAsset: {fileID: 0}
  m_GameObject: {fileID: 0}
  m_Enabled: 1
  m_EditorHideFlags: 0
  m_Script: {fileID: 11500000, guid: 5ac38e6d867aea242bb3278c0143a96a, type: 3}
  m_Name: 6
  m_EditorClassIdentifier: 
  _nodeName: 6
  _speaker: 
  _text: My name... new recruit...
  _face: {fileID: 21300000, guid: adec5d1270c5e604ab1e0e48a038733d, type: 3}
  _alignment: 0
  _choices:
  - _text: Next Dialogue
    _nextNode: {fileID: 11400000, guid: fb051b060b8194242b106b41af12efcc, type: 2}
  _type: 0
  _isRootNode: 0
